…
{% highlight text %}
## # A tibble: 36 × 2
##       nome_urna_candidato     n
##                     <chr> <int>
## 1  PROF. MIGUEL RODRIGUES  1424
## 2  ALEXANDRE DO SINDICATO  1374
## 3          PIMENTEL FILHO   727
## 4        BRUNO CUNHA LIMA   718
## 5          VANINHO ARAGAO   650
## 6       MARINALDO CARDOSO   550
## 7                  LAFITE   502
## 8             JOAO DANTAS   457
## 9             LULA CABRAL   453
## 10              SGT REGIS   451
## # ... with 26 more rows
{% endhighlight %}



{% highlight text %}
## # A tibble: 36 × 2
##       nome_urna_candidato     n
##                     <chr> <int>
## 1          PIMENTEL FILHO   227
## 2  ALEXANDRE DO SINDICATO   178
## 3       NAPOLEÃO MARACAJÁ   121
## 4  PROF. MIGUEL RODRIGUES   121
## 5        BRUNO CUNHA LIMA   113
## 6          VANINHO ARAGAO    87
## 7             LULA CABRAL    86
## 8            NELSON GOMES    84
## 9             JOAO DANTAS    83
## 10            DR. OLIMPIO    81
## # ... with 26 more rows
…
